/home/jeison/Documentos/Proyecto ruleta/ruleta_backend/src/main/java/com/ruletaApp/Backend/Repository/ApuestaRepository.java
/home/jeison/Documentos/Proyecto ruleta/ruleta_backend/src/main/java/com/ruletaApp/Backend/Service/error/ObjectNotFoundException.java
/home/jeison/Documentos/Proyecto ruleta/ruleta_backend/src/main/java/com/ruletaApp/Backend/Repository/UsersRepository.java
/home/jeison/Documentos/Proyecto ruleta/ruleta_backend/src/main/java/com/ruletaApp/Backend/auth/JwtConfig.java
/home/jeison/Documentos/Proyecto ruleta/ruleta_backend/src/main/java/com/ruletaApp/Backend/Service/transformer/AccountTransformer.java
/home/jeison/Documentos/Proyecto ruleta/ruleta_backend/src/main/java/com/ruletaApp/Backend/Service/dto/UsersDTO.java
/home/jeison/Documentos/Proyecto ruleta/ruleta_backend/src/main/java/com/ruletaApp/Backend/web/rest/UsersResource.java
/home/jeison/Documentos/Proyecto ruleta/ruleta_backend/src/main/java/com/ruletaApp/Backend/web/rest/ApuestaResource.java
/home/jeison/Documentos/Proyecto ruleta/ruleta_backend/src/main/java/com/ruletaApp/Backend/auth/ResourceServerConfig.java
/home/jeison/Documentos/Proyecto ruleta/ruleta_backend/src/main/java/com/ruletaApp/Backend/Domain/enums/Color.java
/home/jeison/Documentos/Proyecto ruleta/ruleta_backend/src/main/java/com/ruletaApp/Backend/auth/AuthorizationServerConfig.java
/home/jeison/Documentos/Proyecto ruleta/ruleta_backend/src/main/java/com/ruletaApp/Backend/config/SwaggerConfig.java
/home/jeison/Documentos/Proyecto ruleta/ruleta_backend/src/main/java/com/ruletaApp/Backend/Service/imp/IApuestaServiceImp.java
/home/jeison/Documentos/Proyecto ruleta/ruleta_backend/src/main/java/com/ruletaApp/Backend/config/AppConfig.java
/home/jeison/Documentos/Proyecto ruleta/ruleta_backend/src/main/java/com/ruletaApp/Backend/Service/dto/ApuestasDTO.java
/home/jeison/Documentos/Proyecto ruleta/ruleta_backend/src/main/java/com/ruletaApp/Backend/Service/IUsersService.java
/home/jeison/Documentos/Proyecto ruleta/ruleta_backend/src/main/java/com/ruletaApp/Backend/Service/imp/UsuarioService.java
/home/jeison/Documentos/Proyecto ruleta/ruleta_backend/src/main/java/com/ruletaApp/Backend/auth/SpringSecurityConfig.java
/home/jeison/Documentos/Proyecto ruleta/ruleta_backend/src/main/java/com/ruletaApp/Backend/Service/transformer/UsersTransformer.java
/home/jeison/Documentos/Proyecto ruleta/ruleta_backend/src/main/java/com/ruletaApp/Backend/Service/IApuestaService.java
/home/jeison/Documentos/Proyecto ruleta/ruleta_backend/src/main/java/com/ruletaApp/Backend/Service/transformer/ApuestaTransformer.java
/home/jeison/Documentos/Proyecto ruleta/ruleta_backend/src/main/java/com/ruletaApp/Backend/Service/dto/AccountDTO.java
/home/jeison/Documentos/Proyecto ruleta/ruleta_backend/src/main/java/com/ruletaApp/Backend/Domain/Apuestas.java
/home/jeison/Documentos/Proyecto ruleta/ruleta_backend/src/main/java/com/ruletaApp/Backend/Service/imp/IUsersServiceImp.java
/home/jeison/Documentos/Proyecto ruleta/ruleta_backend/src/main/java/com/ruletaApp/Backend/Domain/RolsUser.java
/home/jeison/Documentos/Proyecto ruleta/ruleta_backend/src/main/java/com/ruletaApp/Backend/Repository/RolsUserRespository.java
/home/jeison/Documentos/Proyecto ruleta/ruleta_backend/src/main/java/com/ruletaApp/Backend/Domain/Users.java
/home/jeison/Documentos/Proyecto ruleta/ruleta_backend/src/main/java/com/ruletaApp/Backend/ruletaAppApplication.java
